# WPPM package installation log
# 
# Package: anyjson v0.3.3

Lib\site-packages\anyjson
Lib\site-packages\anyjson-0.3.3-py3.4.egg-info
Lib\site-packages\anyjson\__init__.py
Lib\site-packages\anyjson-0.3.3-py3.4.egg-info\dependency_links.txt
Lib\site-packages\anyjson-0.3.3-py3.4.egg-info\not-zip-safe
Lib\site-packages\anyjson-0.3.3-py3.4.egg-info\PKG-INFO
Lib\site-packages\anyjson-0.3.3-py3.4.egg-info\SOURCES.txt
Lib\site-packages\anyjson-0.3.3-py3.4.egg-info\top_level.txt